^C:\USERS\ILYA\SOURCE\REPOS\PROJECT2\PROJECT2\DEBUG\MAIN.OBJ
C:\USERS\ILYA\SOURCE\REPOS\PROJECT2\DEBUG\PROJECT2.EXE
C:\USERS\ILYA\SOURCE\REPOS\PROJECT2\DEBUG\PROJECT2.ILK
C:\USERS\ILYA\SOURCE\REPOS\PROJECT2\DEBUG\PROJECT2.PDB
^C:\USERS\ILYA\DESKTOP\PROJECT2\PROJECT2\DEBUG\MAIN.OBJ
C:\USERS\ILYA\DESKTOP\PROJECT2\DEBUG\PROJECT2.EXE
C:\USERS\ILYA\DESKTOP\PROJECT2\DEBUG\PROJECT2.ILK
C:\USERS\ILYA\DESKTOP\PROJECT2\DEBUG\PROJECT2.PDB
